<?xml version="1.0" standalone="no"?>
<!DOCTYPE svg PUBLIC "-//W3C//DTD SVG 20010904//EN"
 "http://www.w3.org/TR/2001/REC-SVG-20010904/DTD/svg10.dtd">
<svg version="1.0" xmlns="http://www.w3.org/2000/svg"
 width="72.000000pt" height="72.000000pt" viewBox="0 0 72.000000 72.000000"
 preserveAspectRatio="xMidYMid meet">
<metadata>
Created by potrace 1.15, written by Peter Selinger 2001-2017
</metadata>
<g transform="translate(0.000000,72.000000) scale(0.100000,-0.100000)"
fill="#000000" stroke="none">
<path d="M240 663 c-29 -11 -66 -38 -106 -77 -71 -72 -94 -126 -94 -226 0
-100 23 -154 94 -226 82 -81 120 -94 290 -93 l129 0 34 34 c20 20 33 43 33 58
0 14 12 49 28 78 35 69 43 182 16 261 -23 71 -118 167 -188 191 -62 21 -176
21 -236 0z m240 -53 c61 -30 97 -65 128 -125 36 -69 38 -179 3 -245 -13 -25
-25 -47 -27 -49 -2 -2 -14 10 -28 25 -16 18 -23 36 -20 48 12 38 -18 34 -60
-9 -70 -74 -161 -74 -232 -1 -59 62 -92 41 -37 -25 33 -38 95 -68 144 -69 27
0 43 -8 68 -34 l33 -34 -46 -7 c-122 -19 -236 39 -294 150 -36 69 -38 179 -3
245 40 76 95 123 181 151 43 14 142 3 190 -21z"/>
</g>
</svg>
